Introduction to plasmoRUtils • plasmoRUtils
…
pv
Plasmodium vivax

pf
Plasmodium falciparum

pc
Plasmodium chabaudi

Beside the organism, user needs to specify type="kinase"
to fetch the Kinome and "type=phosphatase" to fetch
Phosphatome.

searchKipho(org="pf",type = "kinase")
#> # A tibble: 148 × 7
#>    `Gene ID`     `Previous ID(s)`      `Product Description`    `Protein Length`
#>    <chr>         <chr>                 <chr>                               <int>
#>  1 PF3D7_0102600 "PFA0130c MAL1P1.17"  serine/threonine protei…              630
#>  2 PF3D7_0103700 "PFA0185w MAL1P1.23"  L-seryl-tRNA(Sec) kinas…              535
#>  3 PF3D7_0107600 "PFA0380w\tMAL1P2.04" serine/threonine protei…             1595
#>  4 PF3D7_0110600 "PFA0515w\tMAL1P2.32" phosphatidylinositol-4-…             1710
#>  5 PF3D7_0110900 "PFA0530c\tMAL1P2.35" adenylate kinase-like p…              186
#>  6 PF3D7_0111500 "PFA0555c\tMAL1P2.40" UMP-CMP kinase, putative              371
#>  7 PF3D7_0203100 "PFB0150c\tPF02_0030" protein kinase, putative             2485
#>  8 PF3D7_0211700 "PFB0520w\tPF02_0109" tyrosine kinase-like pr…             1233
#>  9 PF3D7_0213400 "PFB0605w\tPF02_0125" protein kinase 7 (PK7)                343
#> 10 PF3D7_0214600 "PFB0665w\tPF02_0137" serine/threonine protei…             1714
#> # ℹ 138 more rows
#> # ℹ 3 more variables: `Conserved Protein Domain Family(Accession No)` <chr>,
#> #   `Conserved Protein Domain Family(Name)` <chr>, `Ortholog Group` <chr>
searchKipho(org="pf",type = "phosphatase")
#> # A tibble: 70 × 7
#>    `Gene ID`     `Previous ID(s)`      `Product Description`    `Protein Length`
#>    <chr>         <chr>                 <chr>                               <int>
#>  1 PF3D7_0107200 "PFA0350w\tMAL1P1.64" carbon catabolite repre…              337
#>  2 PF3D7_0107800 "PFA0390w"            double-strand break rep…             1233
#>  3 PF3D7_0303200 "PFC0150w"            HAD superfamily protein…             1162
#>  4 PF3D7_0305600 "PFC0250c"            AP endonuclease (DNA-[a…              617
#>  5 PF3D7_0309000 "PFC0380w"            dual specificity protei…              575
#>  6 PF3D7_0310300 "PFC0430w"            phosphoglycerate mutase…             1165
#>  7 PF3D7_0314400 "PFC0595c"            serine/threonine protei…              308
#>  8 PF3D7_0319200 "PFC0850c"            endonuclease/exonucleas…              906
#>  9 PF3D7_0322100 "PFC0980c"            RNA triphosphatase (Prt…              591
#> 10 PF3D7_0410300 "PFD0505c\tPFD0510c"  protein phosphatase PPM…              906
#> # ℹ 60 more rows
#> # ℹ 3 more variables: `Conserved Protein Domain Family(Accession_No)` <chr>,
#> #   `Conserved Protein Domain Family(Name)` <chr>, `Ortholog Group` <chr>
…
